module sql-data-volume-prometheus-exporter

go 1.17

require github.com/go-sql-driver/mysql v1.6.0

require (
	github.com/BurntSushi/toml v1.1.0 // indirect
	github.com/beorn7/perks v1.0.1 // indirect
	github.com/cespare/xxhash/v2 v2.1.2 // indirect
	github.com/golang/protobuf v1.5.2 // indirect
	github.com/ilyakaznacheev/cleanenv v1.2.6 // indirect
	github.com/joho/godotenv v1.4.0 // indirect
	github.com/matttproud/golang_protobuf_extensions v1.0.1 // indirect
	github.com/prometheus/client_golang v1.12.2 // indirect
	github.com/prometheus/client_model v0.2.0 // indirect
	github.com/prometheus/common v0.32.1 // indirect
	github.com/prometheus/procfs v0.7.3 // indirect
	golang.org/x/sys v0.0.0-20220114195835-da31bd327af9 // indirect
	google.golang.org/protobuf v1.26.0 // indirect
	gopkg.in/yaml.v3 v3.0.0-20210107192922-496545a6307b // indirect
	olympos.io/encoding/edn v0.0.0-20201019073823-d3554ca0b0a3 // indirect
)
